<?xml version="1.0" encoding="UTF-8"?>
<glyph name="Atilde" format="2">
  <advance width="608"/>
  <unicode hex="00C3"/>
  <outline>
    <component base="A"/>
    <component base="tilde" xOffset="88" yOffset="166"/>
  </outline>
</glyph>
