<?xml version="1.0" encoding="UTF-8"?>
<glyph name="F" format="2">
  <advance width="509"/>
  <unicode hex="0046"/>
  <outline>
    <contour>
      <point x="73" y="0" type="line"/>
      <point x="73" y="667" type="line"/>
      <point x="504" y="667" type="line"/>
      <point x="504" y="546" type="line"/>
      <point x="201" y="546" type="line"/>
      <point x="201" y="388" type="line"/>
      <point x="443" y="388" type="line"/>
      <point x="443" y="269" type="line"/>
      <point x="201" y="269" type="line"/>
      <point x="201" y="0" type="line"/>
    </contour>
  </outline>
</glyph>
