<?xml version="1.0" encoding="UTF-8"?>
<glyph name="Hcircumflex" format="2">
  <advance width="655"/>
  <unicode hex="0124"/>
  <outline>
    <component base="H"/>
    <component base="circumflex" xOffset="128" yOffset="166"/>
  </outline>
</glyph>
