<?xml version="1.0" encoding="UTF-8"?>
<glyph name="Kcommaaccent" format="2">
  <advance width="589"/>
  <unicode hex="0136"/>
  <outline>
    <component base="K"/>
    <component base="cedilla" xOffset="69"/>
  </outline>
</glyph>
