<?xml version="1.0" encoding="UTF-8"?>
<glyph name="Odieresis" format="2">
  <advance width="672"/>
  <unicode hex="00D6"/>
  <outline>
    <component base="O"/>
    <component base="dieresis" xOffset="125" yOffset="166"/>
  </outline>
</glyph>
