<?xml version="1.0" encoding="UTF-8"?>
<glyph name="ordmasculine" format="2">
  <advance width="392"/>
  <unicode hex="00BA"/>
  <outline>
    <contour>
      <point x="196" y="295" type="qcurve" smooth="yes"/>
      <point x="135" y="295"/>
      <point x="55" y="360"/>
      <point x="29" y="446"/>
      <point x="29" y="480" type="qcurve" smooth="yes"/>
      <point x="29" y="533"/>
      <point x="76" y="625"/>
      <point x="154" y="664"/>
      <point x="196" y="664" type="qcurve" smooth="yes"/>
      <point x="254" y="664"/>
      <point x="334" y="601"/>
      <point x="364" y="514"/>
      <point x="364" y="480" type="qcurve" smooth="yes"/>
      <point x="364" y="429"/>
      <point x="317" y="336"/>
      <point x="238" y="295"/>
    </contour>
    <contour>
      <point x="196" y="383" type="qcurve" smooth="yes"/>
      <point x="231" y="383"/>
      <point x="264" y="440"/>
      <point x="264" y="480" type="qcurve" smooth="yes"/>
      <point x="264" y="521"/>
      <point x="231" y="579"/>
      <point x="197" y="579" type="qcurve" smooth="yes"/>
      <point x="162" y="579"/>
      <point x="128" y="521"/>
      <point x="128" y="480" type="qcurve" smooth="yes"/>
      <point x="128" y="440"/>
      <point x="161" y="383"/>
    </contour>
  </outline>
</glyph>
