<?xml version="1.0" encoding="UTF-8"?>
<glyph name="Q" format="2">
  <advance width="682"/>
  <unicode hex="0051"/>
  <outline>
    <contour>
      <point x="629" y="-30" type="line"/>
      <point x="624" y="-21"/>
      <point x="574" y="34"/>
      <point x="535" y="71" type="qcurve"/>
      <point x="499" y="32"/>
      <point x="399" y="-14"/>
      <point x="334" y="-14" type="qcurve" smooth="yes"/>
      <point x="261" y="-14"/>
      <point x="152" y="47"/>
      <point x="79" y="145"/>
      <point x="43" y="270"/>
      <point x="43" y="334" type="qcurve" smooth="yes"/>
      <point x="43" y="398"/>
      <point x="79" y="523"/>
      <point x="152" y="621"/>
      <point x="261" y="681"/>
      <point x="334" y="681" type="qcurve" smooth="yes"/>
      <point x="437" y="681"/>
      <point x="578" y="561"/>
      <point x="629" y="397"/>
      <point x="629" y="334" type="qcurve" smooth="yes"/>
      <point x="629" y="289"/>
      <point x="611" y="201"/>
      <point x="593" y="161" type="qcurve"/>
      <point x="641" y="119"/>
      <point x="696" y="55"/>
      <point x="702" y="45" type="qcurve"/>
    </contour>
    <contour>
      <point x="334" y="105" type="qcurve" smooth="yes"/>
      <point x="365" y="105"/>
      <point x="415" y="127"/>
      <point x="435" y="147" type="qcurve"/>
      <point x="398" y="172"/>
      <point x="331" y="200" type="qcurve"/>
      <point x="371" y="294" type="line"/>
      <point x="403" y="283"/>
      <point x="462" y="253"/>
      <point x="485" y="237" type="qcurve"/>
      <point x="499" y="282"/>
      <point x="499" y="334" type="qcurve" smooth="yes"/>
      <point x="499" y="400"/>
      <point x="452" y="514"/>
      <point x="374" y="563"/>
      <point x="334" y="563" type="qcurve" smooth="yes"/>
      <point x="295" y="563"/>
      <point x="234" y="525"/>
      <point x="193" y="461"/>
      <point x="172" y="378"/>
      <point x="172" y="334" type="qcurve" smooth="yes"/>
      <point x="172" y="290"/>
      <point x="193" y="207"/>
      <point x="234" y="143"/>
      <point x="295" y="105"/>
    </contour>
  </outline>
</glyph>
