<?xml version="1.0" encoding="UTF-8"?>
<glyph name="iacute" format="2">
  <advance width="187"/>
  <unicode hex="00ED"/>
  <outline>
    <component base="dotlessi" xOffset="5"/>
    <component base="acute" xOffset="-35"/>
  </outline>
</glyph>
