<?xml version="1.0" encoding="UTF-8"?>
<glyph name="L" format="2">
  <advance width="450"/>
  <unicode hex="004C"/>
  <outline>
    <contour>
      <point x="76" y="0" type="line"/>
      <point x="76" y="667" type="line"/>
      <point x="128" y="667" type="line"/>
      <point x="128" y="49" type="line"/>
      <point x="435" y="49" type="line"/>
      <point x="435" y="0" type="line"/>
    </contour>
  </outline>
</glyph>
