<?xml version="1.0" encoding="UTF-8"?>
<glyph name="ograve" format="2">
  <advance width="497"/>
  <unicode hex="00F2"/>
  <outline>
    <component base="o"/>
    <component base="grave" xOffset="160"/>
  </outline>
</glyph>
