<?xml version="1.0" encoding="UTF-8"?>
<glyph name="radical" format="2">
  <advance width="527"/>
  <unicode hex="221A"/>
  <outline>
    <contour>
      <point x="210" y="0" type="line"/>
      <point x="98" y="234" type="line"/>
      <point x="27" y="234" type="line"/>
      <point x="27" y="281" type="line"/>
      <point x="134" y="281" type="line"/>
      <point x="229" y="76" type="line"/>
      <point x="450" y="717" type="line"/>
      <point x="498" y="701" type="line"/>
      <point x="256" y="0" type="line"/>
    </contour>
  </outline>
</glyph>
