<?xml version="1.0" encoding="UTF-8"?>
<glyph name="umacron" format="2">
  <advance width="494"/>
  <unicode hex="016B"/>
  <outline>
    <component base="u"/>
    <component base="macron" xOffset="97" yOffset="-17"/>
  </outline>
</glyph>
