<?xml version="1.0" encoding="UTF-8"?>
<glyph name="currency" format="2">
  <advance width="588"/>
  <unicode hex="00A4"/>
  <outline>
    <contour>
      <point x="108" y="68" type="line"/>
      <point x="12" y="164" type="line"/>
      <point x="78" y="230" type="line"/>
      <point x="64" y="256"/>
      <point x="48" y="313"/>
      <point x="48" y="345" type="qcurve" smooth="yes"/>
      <point x="48" y="377"/>
      <point x="64" y="434"/>
      <point x="78" y="460" type="qcurve"/>
      <point x="12" y="526" type="line"/>
      <point x="108" y="622" type="line"/>
      <point x="176" y="555" type="line"/>
      <point x="202" y="568"/>
      <point x="258" y="582"/>
      <point x="289" y="582" type="qcurve" smooth="yes"/>
      <point x="319" y="582"/>
      <point x="376" y="567"/>
      <point x="402" y="554" type="qcurve"/>
      <point x="470" y="622" type="line"/>
      <point x="566" y="526" type="line"/>
      <point x="500" y="460" type="line"/>
      <point x="514" y="434"/>
      <point x="530" y="377"/>
      <point x="530" y="345" type="qcurve" smooth="yes"/>
      <point x="530" y="314"/>
      <point x="514" y="256"/>
      <point x="500" y="230" type="qcurve"/>
      <point x="566" y="164" type="line"/>
      <point x="470" y="68" type="line"/>
      <point x="403" y="136" type="line"/>
      <point x="377" y="123"/>
      <point x="321" y="108"/>
      <point x="289" y="108" type="qcurve" smooth="yes"/>
      <point x="258" y="108"/>
      <point x="202" y="123"/>
      <point x="176" y="136" type="qcurve"/>
    </contour>
    <contour>
      <point x="289" y="226" type="qcurve" smooth="yes"/>
      <point x="325" y="226"/>
      <point x="383" y="267"/>
      <point x="405" y="320"/>
      <point x="405" y="345" type="qcurve" smooth="yes"/>
      <point x="405" y="383"/>
      <point x="367" y="438"/>
      <point x="313" y="464"/>
      <point x="289" y="464" type="qcurve" smooth="yes"/>
      <point x="253" y="464"/>
      <point x="196" y="425"/>
      <point x="173" y="370"/>
      <point x="173" y="345" type="qcurve" smooth="yes"/>
      <point x="173" y="320"/>
      <point x="191" y="277"/>
      <point x="222" y="245"/>
      <point x="265" y="226"/>
    </contour>
  </outline>
</glyph>
