<?xml version="1.0" encoding="UTF-8"?>
<glyph name="Delta" format="2">
  <advance width="632"/>
  <unicode hex="2206"/>
  <outline>
    <contour>
      <point x="19" y="0" type="line"/>
      <point x="19" y="88" type="line"/>
      <point x="256" y="667" type="line"/>
      <point x="373" y="667" type="line"/>
      <point x="613" y="88" type="line"/>
      <point x="613" y="0" type="line"/>
    </contour>
    <contour>
      <point x="185" y="132" type="line"/>
      <point x="444" y="132" type="line"/>
      <point x="314" y="472" type="line"/>
    </contour>
  </outline>
</glyph>
